<svg width="12" height="6" viewBox="0 0 12 6" fill="none" xmlns="http://www.w3.org/2000/svg">
<path d="M1.5 1L6 5L10.5 1" stroke="#7B7B81" stroke-width="1.2" stroke-linecap="round" stroke-linejoin="round"/>
</svg>
